Chapter 2 Getting Started | R @ R(D)SVS
…
For example, we will make great use of the tidyverse package in this book. You need to start by installing it with:

install.packages("tidyverse")

And when it has finished downloading, you need to type:

library(tidyverse)

to load it. You’ll see that nothing has appeared in your Environment, but actually you have a whole host of new functions & data you can play with. For example:

slice(starwars)

Which should give you this:

## # A tibble: 87 x 14
##    name     height  mass hair_color  skin_color  eye_color birth_year sex   gender homeworld species films vehicles starships
##    <chr>     <int> <dbl> <chr>       <chr>       <chr>          <dbl> <chr> <chr>  <chr>     <chr>   <lis> <list>   <list>   
##  1 Luke Sk~    172    77 blond       fair        blue            19   male  mascu~ Tatooine  Human   <chr~ <chr [2~ <chr [2]>
##  2 C-3PO       167    75 <NA>        gold        yellow         112   none  mascu~ Tatooine  Droid   <chr~ <chr [0~ <chr [0]>
##  3 R2-D2        96    32 <NA>        white, blue red             33   none  mascu~ Naboo     Droid   <chr~ <chr [0~ <chr [0]>
##  4 Darth V~    202   136 none        white       yellow          41.9 male  mascu~ Tatooine  Human   <chr~ <chr [0~ <chr [1]>
##  5 Leia Or~    150    49 brown       light       brown           19   fema~ femin~ Alderaan  Human   <chr~ <chr [1~ <chr [0]>
##  6 Owen La~    178   120 brown, grey light       blue            52   male  mascu~ Tatooine  Human   <chr~ <chr [0~ <chr [0]>
##  7 Beru Wh~    165    75 brown       light       blue            47   fema~ femin~ Tatooine  Human   <chr~ <chr [0~ <chr [0]>
##  8 R5-D4        97    32 <NA>        white, red  red             NA   none  mascu~ Tatooine  Droid   <chr~ <chr [0~ <chr [0]>
##  9 Biggs D~    183    84 black       light       brown           24   male  mascu~ Tatooine  Human   <chr~ <chr [0~ <chr [1]>
## 10 Obi-Wan~    182    77 auburn, wh~ fair        blue-gray       57   male  mascu~ Stewjon   Human   <chr~ <chr [1~ <chr [5]>
## # ... with 77 more rows
…
