7 The Tidyverse | R @ R(D)SVS
…
## Warning: `...` is not empty.
## 
## We detected these problematic arguments:
## * `needs_dots`
## 
## These dots only exist to allow future extensions and should be empty.
## Did you misspecify an argument?

## # A tibble: 24 x 6
##    group1 group2 q         n LikertScale PercRespondents
##    <chr>  <chr>  <chr> <dbl> <chr>                 <dbl>
##  1 A      X      Q1      121 disagree               0.8 
##  2 A      X      Q2      121 disagree               0.3 
##  3 A      Y      Q1      140 disagree               0.8 
##  4 A      Y      Q2      140 disagree               0.2 
##  5 B      X      Q1       50 disagree               0.7 
##  6 B      X      Q2       50 disagree               0.5 
##  7 B      Z      Q1       57 disagree               0.6 
##  8 B      Z      Q2       57 disagree               0.3 
##  9 A      X      Q1      121 neutral                0.05
## 10 A      X      Q2      121 neutral                0.4 
## # ... with 14 more rows
…
